@startuml
participant ":Principal" as pr
participant ":ProdueixEsdeveniments" as pe
participant ":GuardaEsdeveniments" as ge
participant ":MostraEsdeveniments" as me

activate pr

create pe
pr -> pe: "1: crea"
activate pe
pr <-- pe
deactivate pe

create ge
pr -> ge: "2: crea"
activate ge
pr <-- ge
deactivate ge

create me
pr -> me: "3: crea"
activate me
pr <-- me
deactivate me

pr -> pe: "4: addEventListener(guardaEsdeveniments)"
activate pe
pr <-- pe
deactivate pe

pr -> pe: "5: addEventListener(mostraEsdeveniments)"
activate pe
pr <-- pe
deactivate pe
...
pr -> pe: "6: creaEsdeveniment(event : int)"
activate pe
pe -> ge: "7: notifyEvent(event : int)"
activate ge
pe <-- ge
deactivate ge
pe -> me: "8: notifyEvent(event : int)"
activate me
pe <-- me
deactivate me
pr <-- pe
deactivate pe

deactivate pr
@enduml
